…
-   How many aisles are there, and which aisles are the most items
    ordered from?

<!-- -->

    #number of aisles;
    ins_aisle= 
    instacart %>%
      count(aisle)
      
    ins_aisle

    ## # A tibble: 134 x 2
    ##    aisle                      n
    ##    <chr>                  <int>
    ##  1 air fresheners candles  1067
    ##  2 asian foods             7007
    ##  3 baby accessories         306
    ##  4 baby bath body care      328
    ##  5 baby food formula      13198
    ##  6 bakery desserts         1501
    ##  7 baking ingredients     13088
    ##  8 baking supplies decor   1094
    ##  9 beauty                   287
    ## 10 beers coolers           1839
    ## # … with 124 more rows

    #finding the mode;
    ins_aisle[order(ins_aisle$n,decreasing=TRUE),]

    ## # A tibble: 134 x 2
    ##    aisle                              n
    ##    <chr>                          <int>
    ##  1 fresh vegetables              150609
    ##  2 fresh fruits                  150473
    ##  3 packaged vegetables fruits     78493
    ##  4 yogurt                         55240
    ##  5 packaged cheese                41699
    ##  6 water seltzer sparkling water  36617
    ##  7 milk                           32644
    ##  8 chips pretzels                 31269
    ##  9 soy lactosefree                26240
    ## 10 bread                          23635
    ## # … with 124 more rows
…
Make a table showing the mean hour of the day at which Pink Lady Apples
and Coffee Ice Cream are ordered on each day of the week; format this
table for human readers (i.e. produce a 2 x 7 table).

    pla_cic <-
     instacart[which(instacart$product_name == "Pink Lady Apples" |
                    instacart$product_name == "Coffee Ice Cream"),]
    pla_cic

    ## # A tibble: 430 x 15
    ##    order_id product_id add_to_cart_ord… reordered user_id eval_set order_number
    ##       <int>      <int>            <int>     <int>   <int> <chr>           <int>
    ##  1     1342       3798                6         1  156818 train              32
    ##  2    13887      17334                4         1  159168 train               5
    ##  3    32022       3798                3         1   14916 train              46
    ##  4    33963      17334               10         1  180434 train              54
    ##  5    61005       3798                4         1   76283 train              17
    ##  6    63239       3798                6         0   96911 train               5
    ##  7    66981      17334               18         1   27257 train               9
    ##  8    67536       3798                1         1  162096 train               5
    ##  9    76470       3798                5         1  180560 train              61
    ## 10    82073       3798                2         1   76641 train              20
    ## # … with 420 more rows, and 8 more variables: order_dow <int>,
    ## #   order_hour_of_day <int>, days_since_prior_order <int>, product_name <chr>,
    ## #   aisle_id <int>, department_id <int>, aisle <chr>, department <chr>

    #drop other columns;
    pla_cic =
    select(pla_cic , order_hour_of_day, order_dow, product_name)
    pla_cic

    ## # A tibble: 430 x 3
    ##    order_hour_of_day order_dow product_name    
    ##                <int>     <int> <chr>           
    ##  1                 8         3 Pink Lady Apples
    ##  2                17         2 Coffee Ice Cream
    ##  3                13         1 Pink Lady Apples
    ##  4                 9         6 Coffee Ice Cream
    ##  5                 9         2 Pink Lady Apples
    ##  6                 7         4 Pink Lady Apples
    ##  7                 1         6 Coffee Ice Cream
    ##  8                10         2 Pink Lady Apples
    ##  9                 9         1 Pink Lady Apples
    ## 10                 9         1 Pink Lady Apples
    ## # … with 420 more rows
…
    #import csv
    acc_data = read_csv("./accel_data.csv")

    ## Parsed with column specification:
    ## cols(
    ##   .default = col_double(),
    ##   day = col_character()
    ## )

    ## See spec(...) for full column specifications.

    acc_data_clean = janitor::clean_names(acc_data)
    acc_data_clean

    ## # A tibble: 35 x 1,443
    ##     week day_id day   activity_1 activity_2 activity_3 activity_4 activity_5
    ##    <dbl>  <dbl> <chr>      <dbl>      <dbl>      <dbl>      <dbl>      <dbl>
    ##  1     1      1 Frid…       88.4       82.2       64.4       70.0       75.0
    ##  2     1      2 Mond…        1          1          1          1          1  
    ##  3     1      3 Satu…        1          1          1          1          1  
    ##  4     1      4 Sund…        1          1          1          1          1  
    ##  5     1      5 Thur…       47.4       48.8       46.9       35.8       49.0
    ##  6     1      6 Tues…       64.8       59.5       73.7       45.7       42.4
    ##  7     1      7 Wedn…       71.1      103.        68.5       45.4       37.8
    ##  8     2      8 Frid…      675        542       1010        779        509  
    ##  9     2      9 Mond…      291        335        393        335        263  
    ## 10     2     10 Satu…       64         11          1          1          1  
    ## # … with 25 more rows, and 1,435 more variables: activity_6 <dbl>,
    ## #   activity_7 <dbl>, activity_8 <dbl>, activity_9 <dbl>, activity_10 <dbl>,
    ## #   activity_11 <dbl>, activity_12 <dbl>, activity_13 <dbl>, activity_14 <dbl>,
    ## #   activity_15 <dbl>, activity_16 <dbl>, activity_17 <dbl>, activity_18 <dbl>,
    ## #   activity_19 <dbl>, activity_20 <dbl>, activity_21 <dbl>, activity_22 <dbl>,
    ## #   activity_23 <dbl>, activity_24 <dbl>, activity_25 <dbl>, activity_26 <dbl>,
    ## #   activity_27 <dbl>, activity_28 <dbl>, activity_29 <dbl>, activity_30 <dbl>,
    ## #   activity_31 <dbl>, activity_32 <dbl>, activity_33 <dbl>, activity_34 <dbl>,
    ## #   activity_35 <dbl>, activity_36 <dbl>, activity_37 <dbl>, activity_38 <dbl>,
…
    acc_data_clean[order(acc_data_clean$day), ]

    ## # A tibble: 50,400 x 6
    ##     week day_id day    minute      activity_counts weekday_weekend
    ##    <dbl>  <dbl> <fct>  <chr>                 <dbl> <chr>          
    ##  1     1      2 Monday activity_1                1 weekday        
    ##  2     1      2 Monday activity_2                1 weekday        
    ##  3     1      2 Monday activity_3                1 weekday        
    ##  4     1      2 Monday activity_4                1 weekday        
    ##  5     1      2 Monday activity_5                1 weekday        
    ##  6     1      2 Monday activity_6                1 weekday        
    ##  7     1      2 Monday activity_7                1 weekday        
    ##  8     1      2 Monday activity_8                1 weekday        
    ##  9     1      2 Monday activity_9                1 weekday        
    ## 10     1      2 Monday activity_10               1 weekday        
    ## # … with 50,390 more rows
…
    library(p8105.datasets)
    data("ny_noaa")
    ny_noaa= 
      ny_noaa[order(ny_noaa$date,decreasing=FALSE),]
    ny_noaa[order(ny_noaa$date,decreasing=TRUE),]

    ## # A tibble: 2,595,176 x 7
    ##    id          date        prcp  snow  snwd tmax  tmin 
    ##    <chr>       <date>     <int> <int> <int> <chr> <chr>
    ##  1 US1NYAB0001 2010-12-31     0     0    NA <NA>  <NA> 
    ##  2 US1NYAB0006 2010-12-31     0     0    76 <NA>  <NA> 
    ##  3 US1NYAB0010 2010-12-31    NA    NA    NA <NA>  <NA> 
    ##  4 US1NYAB0017 2010-12-31    NA    NA    NA <NA>  <NA> 
    ##  5 US1NYAB0021 2010-12-31     0     0   127 <NA>  <NA> 
    ##  6 US1NYAB0022 2010-12-31    NA    NA    NA <NA>  <NA> 
    ##  7 US1NYAB0023 2010-12-31     0     0   178 <NA>  <NA> 
    ##  8 US1NYAB0025 2010-12-31     0     0   152 <NA>  <NA> 
    ##  9 US1NYAL0002 2010-12-31     0     0    64 <NA>  <NA> 
    ## 10 US1NYBM0001 2010-12-31     0     0    25 <NA>  <NA> 
    ## # … with 2,595,166 more rows

    ny_noaa

    ## # A tibble: 2,595,176 x 7
    ##    id          date        prcp  snow  snwd tmax  tmin 
    ##    <chr>       <date>     <int> <int> <int> <chr> <chr>
    ##  1 USC00300023 1981-01-01     0     0     0 -56   <NA> 
    ##  2 USC00300055 1981-01-01     0     0    76 -50   -128 
    ##  3 USC00300063 1981-01-01     0    NA    NA -83   -150 
    ##  4 USC00300085 1981-01-01     3     3   102 -44   -139 
    ##  5 USC00300093 1981-01-01     0    NA   102 -39   -128 
    ##  6 USC00300183 1981-01-01     0     0    76 -33   -117 
    ##  7 USC00300220 1981-01-01     0     0   203 -39   -122 
    ##  8 USC00300254 1981-01-01     0     0    NA <NA>  <NA> 
    ##  9 USC00300331 1981-01-01     0     0    51 -72   -144 
    ## 10 USC00300343 1981-01-01     0     0   127 <NA>  <NA> 
    ## # … with 2,595,166 more rows
…
The most commonly observed values are 0 (1112758), 25(15809), and 13
(12460) in the snow variable. The high observed value of 0 could be
explained by the fact that many parts of NY do not snow during much of
the year, except during the winter.  
Make a two-panel plot showing the average max temperature in January and
in July in each station across years. Is there any observable /
interpretable structure? Any outliers?

    jan_july = 
      ny_noaa_clean[which(ny_noaa_clean$month == "01" |
                    ny_noaa_clean$month == "07"),]
    jan_july

    ## # A tibble: 437,441 x 10
    ##    id          date        prcp  snow  snwd  tmax  tmin month year  day  
    ##    <chr>       <date>     <dbl> <int> <int> <dbl> <dbl> <chr> <chr> <chr>
    ##  1 USC00300023 1981-01-01   0       0     0  -5.6  NA   01    1981  01   
    ##  2 USC00300055 1981-01-01   0       0    76  -5   -12.8 01    1981  01   
    ##  3 USC00300063 1981-01-01   0      NA    NA  -8.3 -15   01    1981  01   
    ##  4 USC00300085 1981-01-01   0.3     3   102  -4.4 -13.9 01    1981  01   
    ##  5 USC00300093 1981-01-01   0      NA   102  -3.9 -12.8 01    1981  01   
    ##  6 USC00300183 1981-01-01   0       0    76  -3.3 -11.7 01    1981  01   
    ##  7 USC00300220 1981-01-01   0       0   203  -3.9 -12.2 01    1981  01   
    ##  8 USC00300254 1981-01-01   0       0    NA  NA    NA   01    1981  01   
    ##  9 USC00300331 1981-01-01   0       0    51  -7.2 -14.4 01    1981  01   
    ## 10 USC00300343 1981-01-01   0       0   127  NA    NA   01    1981  01   
    ## # … with 437,431 more rows
…
